<?xml version="1.0" standalone="no"?>
<!DOCTYPE svg PUBLIC "-//W3C//DTD SVG 20010904//EN"
 "http://www.w3.org/TR/2001/REC-SVG-20010904/DTD/svg10.dtd">
<svg version="1.0" xmlns="http://www.w3.org/2000/svg"
 width="300.000000pt" height="300.000000pt" viewBox="0 0 300.000000 300.000000"
 preserveAspectRatio="xMidYMid meet">
<metadata>
Created by potrace 1.11, written by Peter Selinger 2001-2013
</metadata>
<g transform="translate(0.000000,300.000000) scale(0.100000,-0.100000)"
fill="#000000" stroke="none">
<path d="M210 2953 c0 -56 233 -2619 238 -2624 11 -10 1026 -289 1051 -289 24
0 1042 279 1053 289 5 5 238 2569 238 2624 0 16 -68 17 -1290 17 -1222 0
-1290 -1 -1290 -17z m2088 -925 l-3 -442 -202 -76 c-111 -42 -205 -79 -208
-82 -4 -4 88 -181 204 -394 116 -213 211 -391 211 -396 0 -5 -132 -7 -292 -6
l-293 3 -48 90 c-27 50 -98 187 -159 305 -61 118 -112 216 -113 218 -1 1 -56
-17 -121 -41 l-119 -44 -3 -266 -2 -267 -229 0 -228 0 -6 272 c-4 149 -7 561
-7 915 l0 643 408 3 c224 1 588 3 810 5 l402 2 -2 -442z"/>
<path d="M1150 1820 l0 -330 34 14 c19 8 172 67 340 132 l306 117 0 198 0 199
-340 0 -340 0 0 -330z"/>
</g>
</svg>
