<?xml version="1.0" encoding="utf-8"?>
<!-- Generator: Adobe Illustrator 17.1.0, SVG Export Plug-In . SVG Version: 6.00 Build 0)  -->
<!DOCTYPE svg PUBLIC "-//W3C//DTD SVG 1.1//EN" "http://www.w3.org/Graphics/SVG/1.1/DTD/svg11.dtd">
<svg version="1.1" id="Layer_1" xmlns="http://www.w3.org/2000/svg" xmlns:xlink="http://www.w3.org/1999/xlink" x="0px" y="0px"
	 viewBox="0 0 300 250" enable-background="new 0 0 300 250" xml:space="preserve">
<g>
	<g>
		<path d="M17.1,197.9v-11.6h5.5v1.7h-3.6v3h2.7v1.7h-2.7v5.1H17.1z"/>
		<path d="M25.8,197.9v-11.6h2v11.6H25.8z"/>
		<path d="M31.2,197.9v-11.6h1.8l2.4,6.6h0v-6.6h1.8v11.6h-1.7l-2.5-7.2h0v7.2H31.2z"/>
		<path d="M40.5,186.4h2.9c1,0,1.8,0.3,2.3,0.8c0.5,0.6,0.8,1.4,0.8,2.6v4.6c0,1.2-0.3,2.1-0.8,2.6c-0.5,0.6-1.3,0.8-2.3,0.8h-2.9
			V186.4z M42.5,196.3h0.7c0.5,0,0.9-0.1,1.1-0.4s0.3-0.7,0.3-1.3v-5.1c0-0.6-0.1-1-0.3-1.3c-0.2-0.2-0.6-0.4-1.1-0.4h-0.7V196.3z"
			/>
		<path d="M58.2,197.9h-2v-4.8l-2.4-6.8h2l1.4,4.4h0l1.3-4.4h2l-2.4,6.8V197.9z"/>
		<path d="M63,189.2c0-0.4,0.1-0.8,0.2-1.2c0.1-0.4,0.3-0.7,0.6-0.9c0.3-0.3,0.6-0.5,0.9-0.6c0.4-0.2,0.8-0.2,1.4-0.2
			c0.5,0,1,0.1,1.4,0.2c0.4,0.2,0.7,0.4,0.9,0.6c0.3,0.3,0.4,0.6,0.6,0.9c0.1,0.4,0.2,0.7,0.2,1.2v6c0,0.4-0.1,0.8-0.2,1.2
			c-0.1,0.4-0.3,0.7-0.6,0.9c-0.3,0.3-0.6,0.5-0.9,0.6c-0.4,0.2-0.8,0.2-1.4,0.2c-0.5,0-1-0.1-1.4-0.2c-0.4-0.2-0.7-0.4-0.9-0.6
			c-0.3-0.3-0.4-0.6-0.6-0.9c-0.1-0.4-0.2-0.7-0.2-1.2V189.2z M65,195.1c0,0.4,0.1,0.8,0.2,1s0.4,0.3,0.8,0.3s0.7-0.1,0.8-0.3
			s0.2-0.5,0.2-1v-5.9c0-0.4-0.1-0.8-0.2-1s-0.4-0.3-0.8-0.3s-0.7,0.1-0.8,0.3s-0.2,0.5-0.2,1V195.1z"/>
		<path d="M72.3,186.4h2v8.7c0,0.8,0.4,1.3,1.1,1.3s1.1-0.4,1.1-1.3v-8.7h2v8.6c0,1-0.3,1.8-0.8,2.3c-0.5,0.5-1.3,0.8-2.2,0.8
			c-0.9,0-1.7-0.3-2.2-0.8c-0.5-0.5-0.8-1.3-0.8-2.3V186.4z"/>
		<path d="M83.6,197.9h-2v-11.6h2.8c1.1,0,1.9,0.3,2.5,0.8c0.6,0.5,0.8,1.4,0.8,2.6c0,0.5,0,0.9-0.1,1.2c-0.1,0.3-0.2,0.6-0.3,0.8
			c-0.1,0.2-0.3,0.4-0.4,0.6s-0.3,0.2-0.5,0.3l1.7,5.2h-2l-1.4-4.8c-0.1,0-0.3,0-0.5,0c-0.2,0-0.4,0-0.6,0V197.9z M83.6,191.5h0.7
			c0.3,0,0.5,0,0.7-0.1c0.2-0.1,0.3-0.1,0.5-0.3c0.1-0.1,0.2-0.3,0.3-0.6c0.1-0.2,0.1-0.5,0.1-0.9c0-0.7-0.1-1.2-0.3-1.4
			c-0.2-0.3-0.6-0.4-1.1-0.4h-0.7V191.5z"/>
		<path d="M95.7,197.9v-11.6h5.5v1.7h-3.6v3h2.7v1.7h-2.7v5.1H95.7z"/>
		<path d="M104.6,197.9h-1.9l2.1-11.6h2.5l2.1,11.6h-1.9l-0.4-2.6H105L104.6,197.9z M105.3,193.6h1.6l-0.8-5h0L105.3,193.6z"/>
		<path d="M115.5,189.2c0-0.2-0.1-0.5-0.1-0.6c-0.1-0.2-0.2-0.3-0.3-0.4c-0.1-0.1-0.2-0.2-0.3-0.2c-0.1,0-0.2-0.1-0.3-0.1
			c-0.3,0-0.6,0.1-0.7,0.3c-0.2,0.2-0.3,0.5-0.3,0.8c0,0.3,0.1,0.6,0.3,0.9c0.2,0.3,0.4,0.6,0.7,0.8s0.6,0.6,1,0.8
			c0.4,0.3,0.7,0.6,1,0.9c0.3,0.3,0.5,0.7,0.7,1.1c0.2,0.4,0.3,0.9,0.3,1.4c0,0.5-0.1,0.9-0.2,1.3c-0.2,0.4-0.4,0.7-0.6,0.9
			c-0.3,0.3-0.6,0.4-1,0.6c-0.4,0.1-0.8,0.2-1.3,0.2s-0.9-0.1-1.2-0.3c-0.4-0.2-0.7-0.4-0.9-0.7s-0.4-0.6-0.6-1
			c-0.1-0.4-0.2-0.8-0.2-1.2l1.9-0.3c0,0.6,0.2,1,0.4,1.3c0.2,0.3,0.5,0.4,0.8,0.4c0.3,0,0.6-0.1,0.8-0.3c0.2-0.2,0.3-0.4,0.3-0.8
			c0-0.4-0.1-0.7-0.3-1s-0.4-0.6-0.7-0.9c-0.3-0.3-0.6-0.6-1-0.8c-0.4-0.3-0.7-0.6-1-0.9c-0.3-0.3-0.5-0.7-0.7-1.1
			c-0.2-0.4-0.3-0.9-0.3-1.5c0-0.9,0.3-1.6,0.8-2.1s1.3-0.7,2.3-0.7c0.4,0,0.8,0.1,1.1,0.2c0.3,0.1,0.6,0.3,0.8,0.6
			c0.2,0.3,0.4,0.5,0.6,0.9c0.1,0.3,0.2,0.7,0.3,1.1L115.5,189.2z"/>
		<path d="M121.4,188.1h-1.9v-1.7h5.8v1.7h-1.9v9.8h-2V188.1z"/>
		<path d="M133.7,197.9h-1.9l2.1-11.6h2.5l2.1,11.6h-1.9l-0.4-2.6h-2.2L133.7,197.9z M134.4,193.6h1.6l-0.8-5h0L134.4,193.6z"/>
		<path d="M141.5,188.1h-1.9v-1.7h5.8v1.7h-1.9v9.8h-2V188.1z"/>
		<path d="M152.7,197.9v-11.6h1.8l2.4,6.6h0v-6.6h1.8v11.6h-1.7l-2.5-7.2h0v7.2H152.7z"/>
		<path d="M162.3,197.9v-11.6h2v11.6H162.3z"/>
		<path d="M167.6,197.9v-11.6h2v4.3h0l2.1-4.3h2l-2.1,4.3l2.4,7.2h-2l-1.6-5.4h0l-0.7,1.3v4.1H167.6z"/>
		<path d="M176.1,197.9v-11.6h5.3v1.7h-3.3v3h2.6v1.7h-2.6v3.4h3.6v1.7H176.1z"/>
		<path d="M184.4,197.9V196h1.9v1.9H184.4z"/>
		<path d="M193.3,190.2v-0.9c0-0.5-0.1-0.8-0.3-1.1c-0.2-0.2-0.4-0.3-0.7-0.3c-0.4,0-0.7,0.1-0.8,0.3s-0.2,0.5-0.2,1v5.9
			c0,0.4,0.1,0.8,0.2,1s0.4,0.3,0.8,0.3c0.4,0,0.6-0.1,0.8-0.3s0.2-0.5,0.2-0.9v-1.4h2v1.3c0,0.4-0.1,0.8-0.2,1.2
			c-0.1,0.4-0.3,0.7-0.5,0.9c-0.2,0.3-0.5,0.5-0.9,0.6c-0.4,0.2-0.8,0.2-1.3,0.2c-0.5,0-1-0.1-1.4-0.2c-0.4-0.2-0.7-0.4-0.9-0.6
			c-0.3-0.3-0.4-0.6-0.6-0.9c-0.1-0.4-0.2-0.7-0.2-1.2v-6c0-0.4,0.1-0.8,0.2-1.2c0.1-0.4,0.3-0.7,0.6-0.9c0.3-0.3,0.6-0.5,0.9-0.6
			c0.4-0.2,0.8-0.2,1.4-0.2c0.5,0,0.9,0.1,1.3,0.3c0.4,0.2,0.7,0.4,0.9,0.7c0.2,0.3,0.4,0.6,0.5,1c0.1,0.4,0.2,0.8,0.2,1.2v0.8
			H193.3z"/>
		<path d="M198.6,189.2c0-0.4,0.1-0.8,0.2-1.2c0.1-0.4,0.3-0.7,0.6-0.9c0.3-0.3,0.6-0.5,0.9-0.6c0.4-0.2,0.8-0.2,1.4-0.2
			s1,0.1,1.4,0.2c0.4,0.2,0.7,0.4,0.9,0.6c0.3,0.3,0.4,0.6,0.6,0.9c0.1,0.4,0.2,0.7,0.2,1.2v6c0,0.4-0.1,0.8-0.2,1.2
			c-0.1,0.4-0.3,0.7-0.6,0.9c-0.3,0.3-0.6,0.5-0.9,0.6c-0.4,0.2-0.8,0.2-1.4,0.2s-1-0.1-1.4-0.2c-0.4-0.2-0.7-0.4-0.9-0.6
			c-0.3-0.3-0.4-0.6-0.6-0.9c-0.1-0.4-0.2-0.7-0.2-1.2V189.2z M200.6,195.1c0,0.4,0.1,0.8,0.2,1s0.4,0.3,0.8,0.3s0.7-0.1,0.8-0.3
			s0.2-0.5,0.2-1v-5.9c0-0.4-0.1-0.8-0.2-1s-0.4-0.3-0.8-0.3s-0.7,0.1-0.8,0.3s-0.2,0.5-0.2,1V195.1z"/>
		<path d="M215.8,186.4v11.6h-1.7v-9h0l-1.8,9h-1l-1.8-9h0v9h-1.7v-11.6h2.6l1.4,6.8h0l1.4-6.8H215.8z"/>
		<path d="M221.2,186.2h1.6l-3.6,11.9h-1.6L221.2,186.2z"/>
		<path d="M226.6,197.9h-2v-11.6h2.8c1.1,0,1.9,0.3,2.5,0.8c0.6,0.5,0.8,1.4,0.8,2.6c0,0.5,0,0.9-0.1,1.2c-0.1,0.3-0.2,0.6-0.3,0.8
			c-0.1,0.2-0.3,0.4-0.4,0.6c-0.2,0.1-0.3,0.2-0.5,0.3l1.7,5.2h-2l-1.4-4.8c-0.1,0-0.3,0-0.5,0c-0.2,0-0.4,0-0.6,0V197.9z
			 M226.6,191.5h0.7c0.3,0,0.5,0,0.7-0.1c0.2-0.1,0.3-0.1,0.5-0.3s0.2-0.3,0.3-0.6c0.1-0.2,0.1-0.5,0.1-0.9c0-0.7-0.1-1.2-0.3-1.4
			s-0.6-0.4-1.1-0.4h-0.7V191.5z"/>
		<path d="M233.9,186.4h2v8.7c0,0.8,0.4,1.3,1.1,1.3s1.1-0.4,1.1-1.3v-8.7h2v8.6c0,1-0.3,1.8-0.8,2.3c-0.5,0.5-1.3,0.8-2.2,0.8
			s-1.7-0.3-2.2-0.8c-0.5-0.5-0.8-1.3-0.8-2.3V186.4z"/>
		<path d="M243.2,197.9v-11.6h1.8l2.4,6.6h0v-6.6h1.8v11.6h-1.7l-2.5-7.2h0v7.2H243.2z"/>
		<path d="M252.5,197.9v-11.6h1.8l2.4,6.6h0v-6.6h1.8v11.6h-1.7l-2.5-7.2h0v7.2H252.5z"/>
		<path d="M262.1,197.9v-11.6h2v11.6H262.1z"/>
		<path d="M267.5,197.9v-11.6h1.8l2.4,6.6h0v-6.6h1.8v11.6h-1.7l-2.5-7.2h0v7.2H267.5z"/>
		<path d="M279.5,192.1h3.2v5.9h-1l-0.4-0.9c-0.3,0.4-0.6,0.6-0.9,0.8s-0.7,0.2-1.1,0.2c-0.8,0-1.4-0.3-1.9-0.8
			c-0.5-0.5-0.7-1.2-0.7-2.2v-6c0-0.4,0.1-0.8,0.2-1.2c0.1-0.4,0.3-0.7,0.5-0.9c0.2-0.3,0.5-0.5,0.9-0.6c0.4-0.2,0.8-0.2,1.3-0.2
			s0.9,0.1,1.3,0.3c0.4,0.2,0.7,0.4,0.9,0.7c0.3,0.3,0.4,0.6,0.6,1s0.2,0.8,0.2,1.2v0.7h-1.9c0-0.4,0-0.8-0.1-1.1
			c0-0.3-0.1-0.5-0.2-0.7c-0.1-0.2-0.2-0.3-0.4-0.3c-0.1-0.1-0.3-0.1-0.5-0.1c-0.2,0-0.5,0.1-0.6,0.3s-0.3,0.5-0.3,1v5.9
			c0,0.4,0.1,0.7,0.2,0.9s0.4,0.3,0.7,0.3c0.4,0,0.7-0.1,0.8-0.4c0.2-0.2,0.2-0.7,0.2-1.2v-1.1h-1.3V192.1z"/>
	</g>
</g>
</svg>
