<svg id="Capa_1" data-name="Capa 1" xmlns="http://www.w3.org/2000/svg" viewBox="0 0 512 489.333">
  <title>linkedin</title>
  <g>
    <rect x="6.333" y="159.001" width="109.999" height="330.329"/>
    <path d="M-112.668,69.84Q-147.328,32.005-204.333,32A132.11,132.11,0,0,0-242.5,37.172q-17.164,5.166-29,14.5A142.212,142.212,0,0,0-290.335,69a143.063,143.063,0,0,0-13,17.634V39.664H-413.007l0.336,16q0.338,16,.336,98.665T-413,370h109.666V185.662q0-17,3.665-27a70.8,70.8,0,0,1,21.168-28.5q14.173-11.509,35.172-11.506,28.658,0,42.167,19.833t13.5,54.834V369.987H-78V180.667Q-78.012,107.659-112.668,69.84Z" transform="translate(590 119.335)"/>
    <path d="M-528-119.335q-27.663,0-44.833,16.168T-590-62.335q0,24.327,16.666,40.664t44,16.334h0.667q28,0,45.169-16.334t16.832-40.664q-0.333-24.67-17-40.832T-528-119.335Z" transform="translate(590 119.335)"/>
  </g>
</svg>
